<?xml version="1.0" standalone="no"?>
<!DOCTYPE svg PUBLIC "-//W3C//DTD SVG 20010904//EN"
 "http://www.w3.org/TR/2001/REC-SVG-20010904/DTD/svg10.dtd">
<svg version="1.0" xmlns="http://www.w3.org/2000/svg"
 width="1280.000000pt" height="640.000000pt" viewBox="0 0 1280.000000 640.000000"
 preserveAspectRatio="xMidYMid meet">
<g transform="translate(0.000000,640.000000) scale(0.100000,-0.100000)"
fill="#000000" stroke="none">
<path d="M7448 6226 c-10 -7 -18 -19 -18 -25 0 -7 78 -50 174 -96 183 -87 274
-142 259 -155 -4 -5 -106 -16 -225 -24 -219 -16 -319 -27 -415 -47 l-53 -10 0
-54 0 -53 98 24 c225 54 311 67 433 62 165 -6 166 -8 99 -150 l-32 -68 27 -31
c64 -77 94 -183 75 -273 -15 -71 -39 -96 -93 -96 -39 0 -44 -3 -62 -37 -25
-46 -94 -90 -154 -99 -35 -5 -56 -16 -87 -46 -23 -22 -75 -57 -115 -77 -73
-37 -74 -38 -136 -142 -88 -150 -132 -208 -185 -247 -27 -18 -48 -40 -48 -48
0 -7 -14 -48 -31 -91 -17 -43 -36 -100 -43 -128 -11 -43 -17 -51 -42 -55 -21
-4 -31 -13 -40 -40 -7 -19 -36 -99 -65 -178 -49 -135 -51 -143 -34 -156 11 -8
16 -20 12 -30 -5 -13 -21 -16 -79 -16 -46 0 -81 5 -93 14 -17 11 -40 10 -160
-10 -194 -32 -286 -32 -353 2 l-52 26 -282 -4 c-190 -3 -292 -8 -311 -16 -23
-10 -34 -9 -59 4 -23 12 -60 15 -164 15 -121 -1 -135 0 -140 16 -3 10 -11 30
-18 44 -11 21 -11 30 0 50 8 15 13 59 14 120 0 90 -1 97 -26 118 -33 29 -53
77 -60 150 -6 49 -11 63 -34 80 -25 18 -120 134 -120 146 0 12 49 4 60 -10 16
-19 44 -19 64 1 20 19 20 70 1 149 -8 33 -15 63 -15 68 0 4 21 27 46 50 35 33
46 50 47 77 2 27 -2 35 -18 38 -31 6 -38 18 -24 40 10 16 10 28 0 59 -11 33
-10 43 8 84 26 59 36 143 22 194 -10 39 -13 41 -83 65 -50 17 -85 37 -116 67
-39 36 -54 43 -115 54 -102 17 -178 7 -256 -33 -109 -55 -185 -168 -257 -380
l-34 -101 35 -36 c20 -19 47 -59 62 -90 26 -52 26 -55 9 -65 -53 -31 -70 -54
-75 -102 l-6 -48 -70 -26 c-214 -80 -361 -200 -404 -332 -13 -39 -16 -165 -6
-199 4 -11 1 -27 -7 -36 -7 -9 -15 -51 -18 -96 -6 -95 5 -88 -173 -109 -82 -9
-214 -12 -497 -8 -212 2 -556 4 -765 5 -355 0 -382 -1 -408 -19 -22 -15 -37
-17 -80 -12 -67 9 -86 9 -119 1 -21 -6 -29 -3 -34 9 -14 36 34 105 210 305 41
46 87 108 103 137 22 40 40 59 73 77 43 22 45 26 48 71 2 33 9 50 23 59 28 18
28 127 -1 145 -11 7 -20 21 -20 32 0 18 -7 20 -87 20 l-88 0 -32 -63 c-53
-101 -114 -188 -178 -254 -52 -54 -66 -63 -96 -63 -52 0 -75 23 -128 128 -27
53 -74 132 -104 174 -53 74 -56 82 -59 145 -3 64 -4 67 -33 75 -87 26 -145 52
-145 64 0 24 63 86 107 105 l43 18 0 104 c0 98 1 105 25 127 14 13 24 29 21
36 -15 39 -131 184 -165 207 -32 21 -41 33 -41 56 0 16 6 33 13 39 7 6 78 23
158 37 258 46 327 68 391 124 25 22 46 31 70 31 40 0 78 24 78 49 0 10 -14 24
-32 33 -31 14 -35 14 -78 -12 -37 -22 -58 -27 -115 -28 -120 -2 -205 -29 -398
-124 -189 -94 -189 -94 -239 -50 -27 23 -22 40 32 99 28 30 67 85 89 121 44
78 147 319 139 328 -11 10 -102 -43 -140 -82 -21 -20 -46 -60 -56 -88 -12 -31
-28 -55 -41 -61 -12 -5 -24 -21 -27 -35 -15 -72 -31 -124 -65 -215 -38 -99
-39 -100 -88 -123 -42 -19 -59 -36 -106 -107 -31 -46 -72 -98 -91 -114 -32
-28 -34 -34 -34 -91 0 -53 4 -66 30 -98 16 -20 41 -68 55 -106 14 -38 33 -82
41 -98 l16 -30 -65 -64 c-39 -38 -78 -66 -98 -71 -31 -8 -39 -20 -89 -119 -31
-60 -96 -172 -144 -249 -175 -276 -216 -393 -223 -636 l-5 -156 98 -5 c147 -8
262 -61 324 -148 37 -52 23 -64 -73 -58 -62 4 -108 16 -192 46 -61 23 -114 37
-120 33 -5 -5 -23 -11 -38 -15 -22 -5 -27 -11 -22 -24 36 -83 43 -177 20 -264
-13 -50 -13 -60 0 -85 19 -36 19 -76 0 -139 -12 -40 -15 -140 -17 -511 -1
-254 0 -464 3 -467 3 -3 61 1 130 9 208 24 558 49 1007 71 72 3 132 10 132 14
0 5 7 16 16 25 13 13 27 15 63 10 25 -3 133 1 240 10 107 8 202 13 213 10 30
-10 21 -24 -24 -36 -23 -6 -48 -19 -55 -29 -9 -12 -32 -19 -80 -24 -562 -51
-790 -73 -1121 -107 -358 -37 -394 -39 -414 -25 -31 22 -78 21 -78 -1 0 -10
-12 -42 -25 -72 -14 -30 -23 -61 -20 -69 9 -24 228 -9 425 28 185 34 300 46
354 36 47 -9 42 -28 -10 -38 -21 -3 -80 -23 -131 -42 -51 -20 -108 -36 -126
-36 -28 0 -40 -7 -62 -36 -15 -19 -24 -38 -20 -42 3 -4 29 -18 57 -32 61 -29
78 -52 61 -77 -6 -10 -16 -17 -22 -16 -6 2 -76 8 -156 15 -113 9 -169 9 -248
0 -114 -14 -127 -22 -127 -83 0 -48 26 -159 47 -204 l17 -35 72 0 c84 0 104
-6 104 -30 0 -20 27 -46 37 -36 4 3 1 12 -5 18 -20 20 -14 35 21 57 31 19 35
19 96 4 44 -11 71 -13 90 -7 30 11 81 -9 81 -32 0 -8 -14 -23 -31 -33 -29 -18
-34 -18 -55 -4 -21 13 -29 13 -91 -7 -37 -13 -72 -26 -76 -30 -14 -13 4 -80
31 -111 22 -27 23 -33 12 -54 -12 -22 -9 -27 36 -71 l48 -47 48 26 c55 31 96
35 105 10 8 -21 -40 -63 -73 -63 -20 0 -24 -5 -24 -27 0 -16 7 -37 15 -47 8
-11 15 -28 15 -38 0 -13 8 -18 26 -18 14 0 34 -4 44 -10 38 -20 42 -121 10
-238 -12 -43 -24 -102 -28 -132 -7 -53 -8 -55 -39 -58 -37 -4 -37 -5 -23 -33
13 -23 36 -25 44 -4 6 17 43 20 65 6 10 -6 22 -5 35 5 31 21 76 17 118 -12 33
-23 46 -26 120 -25 207 3 263 9 266 25 2 10 -9 23 -27 34 -17 9 -34 25 -37 35
-7 22 12 47 37 47 14 0 19 7 19 29 0 70 -64 154 -155 202 -71 38 -74 35 135
148 129 69 172 100 152 108 -17 7 -42 32 -42 43 0 15 160 130 218 157 51 24
53 26 50 61 l-3 37 -62 0 c-69 0 -95 14 -77 43 18 28 75 42 125 31 82 -18 147
-80 109 -104 -6 -3 -10 -21 -10 -39 0 -27 9 -42 48 -78 26 -24 69 -59 95 -77
42 -28 48 -37 44 -59 -3 -17 4 -45 19 -74 13 -27 27 -68 31 -93 5 -42 8 -45
35 -45 45 0 93 25 148 76 l50 47 0 66 c0 55 -3 68 -20 79 -16 10 -20 23 -20
68 0 55 -1 56 -25 50 -47 -12 -95 26 -95 75 0 18 8 19 119 19 66 0 131 -4 145
-9 31 -12 56 10 37 33 -7 8 -11 27 -9 42 3 26 8 29 69 40 137 25 360 36 612
28 240 -7 247 -6 247 13 0 37 17 41 98 22 102 -23 204 -38 397 -58 l160 -16 5
-30 c5 -29 7 -30 65 -30 63 0 85 -8 85 -29 0 -20 -38 -42 -111 -64 l-64 -20 0
-43 0 -43 55 -12 c66 -13 107 -32 114 -51 8 -19 -4 -21 -114 -26 -52 -3 -104
-6 -115 -8 -17 -3 -21 3 -26 36 -5 33 -6 29 -8 -27 l-1 -68 100 0 c63 0 113
-5 134 -14 27 -11 36 -11 57 0 13 7 40 13 59 13 50 1 202 -43 214 -61 18 -29
0 -45 -59 -51 -71 -7 -87 -20 -83 -65 5 -56 38 -73 160 -83 171 -15 182 -22
91 -64 -103 -46 -102 -45 -90 -110 6 -40 6 -64 -2 -81 -9 -22 -8 -24 13 -24
13 0 40 -13 61 -30 70 -55 89 -57 557 -47 58 1 109 5 113 9 4 3 -3 43 -14 87
-12 44 -21 96 -21 116 0 21 -10 51 -26 75 -57 85 -39 168 67 310 31 43 62 87
69 100 11 21 10 22 -6 17 -87 -28 -103 -31 -129 -19 -39 18 -25 36 32 43 27 4
58 11 69 16 10 6 36 13 57 17 35 7 37 9 37 46 l0 40 -61 0 c-102 0 -127 33
-48 64 46 19 120 21 164 5 27 -10 49 -8 136 15 236 60 260 61 1019 61 382 0
716 4 741 8 90 17 64 -28 -36 -63 -68 -23 -95 -45 -95 -75 0 -20 8 -22 114
-34 114 -12 186 -5 201 19 12 20 35 10 35 -14 0 -30 -77 -86 -118 -86 -39 -1
-103 -17 -115 -29 -7 -7 -6 -16 6 -29 11 -12 13 -22 7 -28 -6 -6 -18 -26 -28
-46 l-18 -35 27 -15 c23 -13 29 -26 38 -84 8 -45 8 -80 2 -101 l-9 -32 46 -6
c26 -4 109 -22 184 -41 170 -42 240 -50 306 -34 44 10 54 10 74 -4 17 -12 48
-16 135 -16 122 0 160 -10 169 -46 12 -49 3 -59 -59 -62 -61 -3 -73 -18 -41
-53 14 -16 12 -21 -18 -62 -32 -44 -60 -58 -73 -37 -12 19 -90 12 -110 -10
-18 -20 -17 -20 411 -20 428 1 429 1 405 20 -26 22 -99 27 -133 9 -16 -9 -24
-6 -44 12 -14 13 -24 32 -22 44 3 17 12 21 66 25 65 5 84 18 80 54 -2 14 -29
33 -84 60 -128 64 -143 86 -71 102 36 8 47 17 73 59 71 111 114 136 167 95 22
-18 26 -18 38 -4 10 12 10 22 1 48 -7 18 -12 40 -12 49 0 24 -4 22 -66 -24
-43 -33 -63 -42 -95 -42 -24 0 -47 7 -57 17 -15 15 -14 18 5 43 23 31 77 51
141 52 41 1 42 2 42 35 0 28 -6 38 -34 54 -24 14 -38 34 -51 70 l-19 51 -55 3
c-51 3 -56 5 -56 26 0 18 12 30 50 51 28 15 50 33 50 40 0 7 -16 21 -35 30
-19 9 -36 24 -38 34 -3 16 16 17 270 19 392 2 607 -1 735 -14 97 -9 118 -8
153 6 51 20 148 21 199 0 36 -14 42 -14 70 0 41 22 51 20 97 -13 55 -40 91
-50 236 -66 161 -18 193 -27 247 -70 35 -28 53 -35 86 -35 34 0 44 -4 48 -19
4 -17 17 -19 138 -22 113 -3 139 -7 169 -25 58 -34 46 -48 -45 -54 -91 -6
-105 -12 -105 -44 0 -19 11 -28 55 -46 31 -12 63 -32 73 -45 15 -19 30 -22
123 -28 59 -4 153 -16 210 -27 57 -11 105 -20 107 -20 1 0 2 -6 2 -14 0 -19
-31 -29 -64 -20 -33 8 -43 -15 -25 -57 18 -44 57 -57 198 -65 74 -4 125 -12
131 -19 7 -9 -6 -24 -48 -57 -64 -50 -115 -131 -110 -176 6 -56 133 -91 175
-49 8 8 17 36 21 63 l7 49 49 5 49 5 28 105 c59 226 137 339 267 384 34 12 37
17 42 57 5 41 8 45 51 65 25 12 67 46 94 76 l48 53 -29 3 c-40 5 -56 21 -52
51 3 23 7 26 36 24 35 -1 77 -33 88 -65 3 -10 12 -18 20 -18 24 0 29 -31 9
-46 -16 -12 -5 -14 83 -14 56 0 102 2 102 4 0 3 -23 12 -50 21 -52 17 -85 51
-75 76 6 16 317 60 417 59 47 0 59 4 68 19 19 37 11 94 -26 172 l-36 76 -101
7 c-56 4 -376 4 -712 1 -655 -7 -808 -2 -813 27 -2 9 8 24 22 34 24 15 28 15
51 0 31 -20 75 -20 161 0 56 13 76 13 112 3 38 -10 46 -10 60 5 15 15 13 16
-28 17 -58 1 -132 21 -138 37 -3 9 49 12 237 12 132 0 242 4 245 8 9 15 -20
57 -42 60 -12 2 -32 -4 -44 -12 -31 -22 -52 -20 -98 9 -66 42 -48 65 52 65 82
0 87 47 24 189 -20 43 -36 94 -36 113 0 32 -3 36 -39 47 -22 6 -61 29 -87 51
-55 45 -76 49 -98 19 -24 -35 -45 -18 -81 66 -62 142 -110 190 -199 197 -35 3
-40 0 -46 -21 -10 -43 -100 -52 -100 -11 0 11 11 27 25 36 53 35 34 46 -130
80 -120 25 -195 64 -182 97 3 7 33 21 68 31 35 9 147 50 249 90 228 91 254
100 360 122 71 14 91 23 125 54 22 20 79 67 127 103 121 93 158 139 158 194 0
61 23 166 68 308 l38 120 169 0 c94 0 242 4 330 9 136 8 173 6 245 -8 l85 -18
22 29 c13 15 29 45 35 66 11 37 10 39 -25 75 -36 35 -37 36 -73 23 -20 -7 -90
-15 -155 -16 -64 -2 -127 -9 -139 -15 -16 -9 -35 -8 -83 4 -34 8 -102 17 -152
21 -105 7 -182 27 -217 55 -21 16 -28 34 -37 94 -6 41 -31 137 -55 213 -24 76
-47 159 -51 184 -5 36 -17 57 -55 98 -27 29 -86 107 -132 174 -91 133 -161
214 -224 258 -53 36 -152 69 -209 69 -39 0 -52 -5 -80 -33 l-34 -33 -3 -124
-3 -123 -90 -23 c-49 -12 -142 -42 -205 -67 -63 -25 -142 -51 -176 -57 -45 -9
-62 -17 -70 -33 -6 -16 -30 -28 -79 -44 -572 -178 -858 -259 -987 -278 -38 -6
-51 -13 -60 -33 -10 -19 -28 -31 -73 -44 -100 -31 -368 -96 -569 -139 -104
-22 -238 -51 -298 -65 -101 -24 -110 -25 -133 -10 -26 17 -41 56 -32 80 9 22
71 37 170 43 l87 5 0 32 c0 42 24 74 62 84 24 6 34 16 45 47 21 60 55 97 152
164 106 72 136 108 152 179 11 46 10 54 -6 72 -25 28 -207 83 -246 75 -48 -11
-96 -60 -147 -152 -26 -47 -64 -100 -84 -119 -38 -34 -102 -54 -119 -37 -15
15 26 133 106 303 78 167 89 196 105 279 l10 53 -41 37 c-22 20 -46 53 -54 76
-12 37 -16 40 -57 45 -36 4 -44 9 -46 30 -2 13 -10 33 -18 44 -18 26 -18 71 0
89 16 16 51 30 119 47 78 21 133 80 74 80 -13 0 -32 6 -43 14 -19 14 -19 15 4
45 24 33 28 61 11 78 -22 22 -2 43 40 43 49 0 54 12 41 96 -17 105 -22 112
-77 116 l-48 3 3 49 c4 47 3 50 -50 100 -30 28 -62 63 -72 79 l-18 27 -227 0
c-124 0 -231 4 -237 8 -6 4 -19 24 -29 46 -25 53 -84 88 -229 135 -67 22 -128
42 -136 45 -8 3 -23 -1 -32 -8z"/>
<path d="M11755 1529 c-22 -4 -58 -9 -80 -9 l-40 -2 40 -10 c51 -12 134 -3
154 17 14 13 13 15 -9 14 -14 -1 -43 -5 -65 -10z"/>
<path d="M8803 1093 c9 -2 23 -2 30 0 6 3 -1 5 -18 5 -16 0 -22 -2 -12 -5z"/>
</g>
</svg>
